<svg width="51" height="38" viewBox="0 0 51 38" fill="none" xmlns="http://www.w3.org/2000/svg">
<path d="M46.2187 0H4.78128C2.14472 0 0 2.1307 0 4.75003V33.25C0 35.8693 2.14472 38 4.78128 38H46.2187C48.8553 38 51 35.8693 51 33.25V4.75003C51 2.1307 48.8553 0 46.2187 0ZM46.2187 3.16665C46.4353 3.16665 46.6413 3.21128 46.8296 3.28923L25.5 21.6549L4.17032 3.28923C4.35864 3.21139 4.56464 3.16665 4.78118 3.16665H46.2187ZM46.2187 34.8332H4.78128C3.90193 34.8332 3.18749 34.1236 3.18749 33.2499V6.63483L24.4556 24.9467C24.7561 25.2049 25.128 25.3333 25.5 25.3333C25.872 25.3333 26.2439 25.205 26.5444 24.9467L47.8125 6.63483V33.25C47.8124 34.1236 47.0981 34.8332 46.2187 34.8332Z" fill="#0070F3"/>
</svg>
